...............
----------------------------------------------------------------------
Ran 15 tests in 0.952s

OK
Name             Stmts   Miss Branch BrPart  Cover   Missing
------------------------------------------------------------
Collatz.py          56      2     18      3    93%   96-97, 95->96, 101->105, 111->110
TestCollatz.py      69      2      0      0    97%   71-72
------------------------------------------------------------
TOTAL              125      4     18      3    95%
