1 10 20
100 200 125
201 210 89
900 1000 174
104495 486048 449
186646 440368 449
163788 274512 443
140515 193446 383
63106 348865 443
82299 380871 443
128467 183594 383
127542 396184 443
19912 194198 383
480190 483289 413
296174 482788 449
226330 324701 443
140972 439097 449
347106 351321 366
126681 479999 449
57467 435677 449
177079 350181 443
362642 381569 423
99266 485771 449
204621 273414 443
227267 284365 443
130902 396325 443
346728 357576 379
306466 460194 449
163926 260016 443
49278 239268 443
196717 335650 443
80622 389534 443
108252 497538 449
38976 196498 383
148881 167084 383
251353 312692 407
10608 30761 308
445858 456955 387
242159 267925 407
180860 262177 443
170069 428509 449
257867 395378 441
48904 177747 383
182805 287557 443
9920 462036 449
252392 435601 449
208882 419492 449
192287 315338 443
273886 453316 449
53498 178927 383
24186 442290 449
302853 494805 449
405276 486589 449
93915 373375 443
150 400 144
300 800 171
450 1200 182
600 1600 182
750 2000 182
900 2400 183
1050 2800 209
1200 3200 217
1350 3600 217
1500 4000 238
1650 4400 238
1800 4800 238
1950 5200 238
2100 5600 238
2250 6000 238
2400 6400 262
2550 6800 262
2700 7200 262
2850 7600 262
150 150 16
300 300 17
450 450 54
600 600 18
750 750 47
900 900 55
1050 1050 32
1200 1200 19
1350 1350 115
550 1555 182
1100 3110 217
1650 4665 238
2200 6220 262
2750 7775 262
3300 9330 262
3850 10885 262
4400 12440 268
4950 13995 276
5500 15550 276
6050 17105 276
6600 18660 279
7150 20215 279
7700 21770 279
8250 23325 279
8800 24880 282
9350 26435 282
9900 27990 308
10450 29545 308
1000 2000 182
2000 4000 238
3000 6000 238
4000 8000 262
5000 10000 262
6000 12000 268
7000 14000 276
8000 16000 276
9000 18000 279
10000 20000 279
11000 22000 279
12000 24000 282
13000 26000 282
14000 28000 308
15000 30000 308
16000 32000 308
17000 34000 308
18000 36000 324
19000 38000 324
3489 4438 238
6978 8876 252
10467 13314 276
13956 17752 279
17445 22190 279
20934 26628 308
24423 31066 308
27912 35504 311
31401 39942 324
34890 44380 324
38379 48818 314
41868 53256 340
45357 57694 340
48846 62132 340
52335 66570 340
55824 71008 335
59313 75446 335
62802 79884 351
66291 84322 351
800 300 171
1600 600 182
2400 900 183
3200 1200 217
4000 1500 238
4800 1800 238
5600 2100 238
6400 2400 262
7200 2700 262
8000 3000 262
8800 3300 262
9600 3600 262
10400 3900 262
11200 4200 268
12000 4500 268
12800 4800 268
13600 5100 276
14400 5400 276
15200 5700 276
1500 555 182
3000 1110 217
4500 1665 238
6000 2220 238
7500 2775 262
9000 3330 262
10500 3885 262
12000 4440 268
13500 4995 276
15000 5550 276
16500 6105 276
18000 6660 279
19500 7215 279
21000 7770 279
22500 8325 279
24000 8880 282
25500 9435 282
27000 9990 308
28500 10545 308
1506 5556 238
3012 11112 268
4518 16668 276
6024 22224 279
7530 27780 308
9036 33336 308
10542 38892 324
12048 44448 324
13554 50004 324
15060 55560 340
16566 61116 340
18072 66672 340
19578 72228 340
21084 77784 351
22590 83340 351
24096 88896 351
25602 94452 351
27108 100008 351
28614 105564 351
4324 6439 262
8648 12878 268
12972 19317 279
17296 25756 282
21620 32195 308
25944 38634 324
30268 45073 324
34592 51512 324
38916 57951 340
43240 64390 340
47564 70829 340
51888 77268 351
56212 83707 351
60536 90146 351
64860 96585 351
69184 103024 351
73508 109463 354
77832 115902 354
82156 122341 354
-5688 -7845 0
